{
  "__comment": "Designed by HanFox with Cubik Studio - https://cubik.studio",
  "parent": "block/cyan_candle_cake",
  "textures": {
    "particle": "block/cake_top",
    "candle": "block/candles_lit_01"
  }
}
